Symbols :
	int : main
	Local : 
		Symbols :
		Statements :
	Body  : 
		Symbols :
			Struct : point
			Symbols :
				int : x = NULL
				int : y = NULL
				Struct : b
				Symbols :
					int : ro = NULL
					int : fi = NULL
				Statements :
				$_b : z = NULL
			Statements :
			$_point : a = NULL
		Statements :
			   a
			.
			   z
Statements :
