Symbols :
	int : main
	Local : 
		Symbols :
		Statements :
	Body  : 
		Symbols :
			[int x 10] : a = NULL
			int : i = 
				0
			void : f
			Local : 
				Symbols :
					int : b = NULL
				Statements :
			Body  : 
				Not declared
		Statements :
			   f
			()
			      a
			   []
			      i
Statements :
