Symbols :
	int : main
	Local : 
		Symbols :
		Statements :
	Body  : 
		Symbols :
			Struct : point
			Symbols :
				int : x = NULL
				int : y = NULL
			Statements :
			$_point : p1 = NULL
			$_point : p2 = NULL
		Statements :
			   p1
			&&
			   p2
Statements :
